{
  "albums": {
    "href": "https://api.spotify.com/v1/browse/new-releases?country=US&offset=0&limit=3",
    "items": [
      {
        "album_type": "single",
        "artists": [
          {
            "external_urls": {
              "spotify": "https://open.spotify.com/artist/5f7VJjfbwm532GiveGC0ZK"
            },
            "href": "https://api.spotify.com/v1/artists/5f7VJjfbwm532GiveGC0ZK",
            "id": "5f7VJjfbwm532GiveGC0ZK",
            "name": "Lil Baby",
            "type": "artist",
            "uri": "spotify:artist:5f7VJjfbwm532GiveGC0ZK"
          }
        ],
        "available_markets": [
          "AD",
          "AE",
          "AR",
          "AT",
          "AU",
          "BE",
          "BG",
          "BH",
          "BO",
          "BR",
          "CA",
          "CH",
          "CL",
          "CO",
          "CR",
          "CY",
          "CZ",
          "DE",
          "DK",
          "DO",
          "DZ",
          "EC",
          "EE",
          "EG",
          "ES",
          "FI",
          "FR",
          "GB",
          "GR",
          "GT",
          "HK",
          "HN",
          "HU",
          "ID",
          "IE",
          "IL",
          "IN",
          "IS",
          "IT",
          "JO",
          "JP",
          "KW",
          "LB",
          "LI",
          "LT",
          "LU",
          "LV",
          "MA",
          "MC",
          "MT",
          "MX",
          "MY",
          "NI",
          "NL",
          "NO",
          "NZ",
          "OM",
          "PA",
          "PE",
          "PH",
          "PL",
          "PS",
          "PT",
          "PY",
          "QA",
          "RO",
          "SA",
          "SE",
          "SG",
          "SK",
          "SV",
          "TH",
          "TN",
          "TR",
          "TW",
          "US",
          "UY",
          "VN",
          "ZA"
        ],
        "external_urls": {
          "spotify": "https://open.spotify.com/album/6ZTl8hHvYNuEg4Mk8yxz75"
        },
        "href": "https://api.spotify.com/v1/albums/6ZTl8hHvYNuEg4Mk8yxz75",
        "id": "6ZTl8hHvYNuEg4Mk8yxz75",
        "images": [
          {
            "height": 640,
            "url": "https://i.scdn.co/image/ab67616d0000b273c0ee50f512295c64a2c8af3d",
            "width": 640
          },
          {
            "height": 300,
            "url": "https://i.scdn.co/image/ab67616d00001e02c0ee50f512295c64a2c8af3d",
            "width": 300
          },
          {
            "height": 64,
            "url": "https://i.scdn.co/image/ab67616d00004851c0ee50f512295c64a2c8af3d",
            "width": 64
          }
        ],
        "name": "The Bigger Picture",
        "release_date": "2020-06-12",
        "release_date_precision": "day",
        "total_tracks": 1,
        "type": "album",
        "uri": "spotify:album:6ZTl8hHvYNuEg4Mk8yxz75"
      },
      {
        "album_type": "single",
        "artists": [
          {
            "external_urls": {
              "spotify": "https://open.spotify.com/artist/0eDvMgVFoNV3TpwtrVCoTj"
            },
            "href": "https://api.spotify.com/v1/artists/0eDvMgVFoNV3TpwtrVCoTj",
            "id": "0eDvMgVFoNV3TpwtrVCoTj",
            "name": "Pop Smoke",
            "type": "artist",
            "uri": "spotify:artist:0eDvMgVFoNV3TpwtrVCoTj"
          },
          {
            "external_urls": {
              "spotify": "https://open.spotify.com/artist/6LXRvV2OAtXF7685fzh3mj"
            },
            "href": "https://api.spotify.com/v1/artists/6LXRvV2OAtXF7685fzh3mj",
            "id": "6LXRvV2OAtXF7685fzh3mj",
            "name": "Rowdy Rebel",
            "type": "artist",
            "uri": "spotify:artist:6LXRvV2OAtXF7685fzh3mj"
          }
        ],
        "available_markets": [
          "AD",
          "AE",
          "AR",
          "AT",
          "AU",
          "BE",
          "BG",
          "BH",
          "BO",
          "BR",
          "CA",
          "CH",
          "CL",
          "CO",
          "CR",
          "CY",
          "CZ",
          "DE",
          "DK",
          "DO",
          "DZ",
          "EC",
          "EE",
          "EG",
          "ES",
          "FI",
          "FR",
          "GB",
          "GR",
          "GT",
          "HK",
          "HN",
          "HU",
          "ID",
          "IE",
          "IL",
          "IN",
          "IS",
          "IT",
          "JO",
          "JP",
          "KW",
          "LB",
          "LI",
          "LT",
          "LU",
          "LV",
          "MA",
          "MC",
          "MT",
          "MX",
          "MY",
          "NI",
          "NL",
          "NO",
          "NZ",
          "OM",
          "PA",
          "PE",
          "PH",
          "PL",
          "PS",
          "PT",
          "PY",
          "QA",
          "RO",
          "SA",
          "SE",
          "SG",
          "SK",
          "SV",
          "TH",
          "TN",
          "TR",
          "TW",
          "US",
          "UY",
          "VN",
          "ZA"
        ],
        "external_urls": {
          "spotify": "https://open.spotify.com/album/6LHOfqa7SALPKZvLhCevJP"
        },
        "href": "https://api.spotify.com/v1/albums/6LHOfqa7SALPKZvLhCevJP",
        "id": "6LHOfqa7SALPKZvLhCevJP",
        "images": [
          {
            "height": 640,
            "url": "https://i.scdn.co/image/ab67616d0000b27304863a5a870539e32f03b89e",
            "width": 640
          },
          {
            "height": 300,
            "url": "https://i.scdn.co/image/ab67616d00001e0204863a5a870539e32f03b89e",
            "width": 300
          },
          {
            "height": 64,
            "url": "https://i.scdn.co/image/ab67616d0000485104863a5a870539e32f03b89e",
            "width": 64
          }
        ],
        "name": "Make It Rain",
        "release_date": "2020-06-12",
        "release_date_precision": "day",
        "total_tracks": 1,
        "type": "album",
        "uri": "spotify:album:6LHOfqa7SALPKZvLhCevJP"
      },
      {
        "album_type": "album",
        "artists": [
          {
            "external_urls": {
              "spotify": "https://open.spotify.com/artist/0AsThoR4KZSVktALiNcQwW"
            },
            "href": "https://api.spotify.com/v1/artists/0AsThoR4KZSVktALiNcQwW",
            "id": "0AsThoR4KZSVktALiNcQwW",
            "name": "Chloe x Halle",
            "type": "artist",
            "uri": "spotify:artist:0AsThoR4KZSVktALiNcQwW"
          }
        ],
        "available_markets": [
          "AD",
          "AE",
          "AR",
          "AT",
          "AU",
          "BE",
          "BG",
          "BH",
          "BO",
          "BR",
          "CA",
          "CH",
          "CL",
          "CO",
          "CR",
          "CY",
          "CZ",
          "DE",
          "DK",
          "DO",
          "DZ",
          "EC",
          "EE",
          "EG",
          "ES",
          "FI",
          "FR",
          "GB",
          "GR",
          "GT",
          "HK",
          "HN",
          "HU",
          "ID",
          "IE",
          "IL",
          "IN",
          "IS",
          "IT",
          "JO",
          "JP",
          "KW",
          "LB",
          "LI",
          "LT",
          "LU",
          "LV",
          "MA",
          "MC",
          "MT",
          "MX",
          "MY",
          "NI",
          "NL",
          "NO",
          "NZ",
          "OM",
          "PA",
          "PE",
          "PH",
          "PL",
          "PS",
          "PT",
          "PY",
          "QA",
          "RO",
          "SA",
          "SE",
          "SG",
          "SK",
          "SV",
          "TH",
          "TN",
          "TR",
          "TW",
          "US",
          "UY",
          "VN",
          "ZA"
        ],
        "external_urls": {
          "spotify": "https://open.spotify.com/album/2HIaUwS0PTUeqFFYHBBGAN"
        },
        "href": "https://api.spotify.com/v1/albums/2HIaUwS0PTUeqFFYHBBGAN",
        "id": "2HIaUwS0PTUeqFFYHBBGAN",
        "images": [
          {
            "height": 640,
            "url": "https://i.scdn.co/image/ab67616d0000b273741bb85cfdde70bf9fc9436b",
            "width": 640
          },
          {
            "height": 300,
            "url": "https://i.scdn.co/image/ab67616d00001e02741bb85cfdde70bf9fc9436b",
            "width": 300
          },
          {
            "height": 64,
            "url": "https://i.scdn.co/image/ab67616d00004851741bb85cfdde70bf9fc9436b",
            "width": 64
          }
        ],
        "name": "Ungodly Hour",
        "release_date": "2020-06-12",
        "release_date_precision": "day",
        "total_tracks": 13,
        "type": "album",
        "uri": "spotify:album:2HIaUwS0PTUeqFFYHBBGAN"
      }
    ],
    "limit": 3,
    "next": "https://api.spotify.com/v1/browse/new-releases?country=US&offset=3&limit=3",
    "offset": 0,
    "previous": null,
    "total": 100
  }
}
